R for Archaeologists
…
---

```
## # A tibble: 761 × 10
##       id site       country latitude longitude coord_source periods fauna_source
##    <dbl> <chr>      <chr>      <dbl>     <dbl> <chr>        <chr>   <chr>       
##  1     2 Abu Hurey… Syria       35.9      38.4 Schyle & Ue… PN;EN;… Moore, Hill…
##  2     8 Ain Malla… Israel      33.1      35.6 CONTEXT      PN      Ducos 1968,…
##  3    12 Amuq       Turkey      36.3      36.6 Yener 2005   LN      Stampfli 19…
##  4    14 Apamee, T… Syria       35.5      36.4 Pleiades     LN      Gautier 1977
##  5    19 Aşıklı Hü… Turkey      38.4      34.2 CONTEXT      EN      Payne 1985  
##  6    26 Beersheba… Israel      32.9      35.4 Pleiades     LN      Josien 1955…
##  7    27 Beersheba… Israel      32.9      35.4 Pleiades     LN      Angress 1959
##  8    28 Beidha     Jordan      30.4      35.4 CONTEXT      EN      Hecker 1974…
##  9    29 Beisamoun  Israel      33.1      35.6 Bocquentin … EN      Davis 1978  
## 10    37 Çatal Hüy… Turkey      37.7      32.8 Pleiades     EN      Perkins 1969
## # … with 751 more rows, and 2 more variables: taxon <chr>, occurrence <dbl>
```
…
---

.pull-left[

```
## # A tibble: 1,915 × 10
##    LabID   CRA Error Material Species SiteName Country Longitude Latitude Region
##    <chr> <int> <int> <chr>    <chr>   <chr>    <chr>       <dbl>    <dbl> <chr> 
##  1 AA-1…  9100   140 charcoal Pisum   'Ain Gh… JO           36.0     32.0 1     
##  2 AA-1…  8570   180 charcoal <NA>    'Ain Gh… JO           36.0     32.0 1     
##  3 AA-2…  8775    75 charcoal <NA>    'Ain Gh… JO           36.0     32.0 1     
##  4 AA-2…  8030    65 charcoa… <NA>    'Ain Gh… JO           36.0     32.0 1     
##  5 AA-2…  8080    65 charcoal <NA>    'Ain Gh… JO           36.0     32.0 1     
##  6 AA-2…  8205    65 charcoal <NA>    'Ain Gh… JO           36.0     32.0 1     
##  7 AA-2…  7910    60 charcoal <NA>    'Ain Gh… JO           36.0     32.0 1     
##  8 AA-2…  7910    60 charcoal <NA>    'Ain Gh… JO           36.0     32.0 1     
##  9 AA-2…  7980    55 seeds (… Lens    'Ain Gh… JO           36.0     32.0 1     
## 10 AA-5…  7670   100 charcoal <NA>    'Ain Gh… JO           36.0     32.0 1     
## # … with 1,905 more rows
```
…
